{
  "index": 5,
  "name": "djmadmat.com - 2014",
  "tags": ["web"],
  "excerpt": "Website Development with Social Media Integration",
  "slides": [
    {
      "file": "slide2.png",
      "alt": "Alternate site on an iMac"
    },
    {
      "file": "slide1.png",
      "alt": "Website on an iMac"
    }
  ]
}
